flake8-assertive==2.1.0
flake8-blind-except==0.2.1
flake8-builtins==2.1.0
flake8-commas==2.1.0
flake8-comprehensions==3.14.0
flake8-debugger==4.1.2
flake8-deprecated==2.1.0
flake8-docstrings==1.7.0
flake8-logging-format==0.9.0
flake8-quotes==3.3.2
flake8-string-format==0.3.0
flake8-tidy-imports==4.10.0
flake8-tuple==0.4.1
pylint==3.0.2
wemake-python-styleguide==0.18.0
isort==5.12.0
bandit==1.7.5
